{
    "pvii": {
        "vibd": [{
            "binding": 0,
            "stride": 32,
            "inputRate": "VK_VERTEX_INPUT_RATE_VERTEX"
        }],
        "viad": [{
            "location": 0,
            "binding": 0,
            "format": "VK_FORMAT_R32G32B32_SFLOAT",
            "offset": 0
        }, {
            "location": 1,
            "binding": 0,
            "format": "VK_FORMAT_R32G32B32_SFLOAT",
            "offset": 12
        }, {
            "location": 2,
            "binding": 0,
            "format": "VK_FORMAT_R32G32_SFLOAT",
            "offset": 24
        }]
    },
    "dslp": [{
        "stageFlags": "VK_SHADER_STAGE_VERTEX_BIT",
        "offset": 0,
        "size": 128
    }],
    "pssi": [{
        "stage": "VK_SHADER_STAGE_VERTEX_BIT",
        "module": "programs/spirv/spirv-sphere.vert.spv",
        "name": "main"
    }, {
        "stage": "VK_SHADER_STAGE_FRAGMENT_BIT",
        "module": "programs/spirv/spirv-sphere.frag.spv",
        "name": "main"
    }],
    "layouts": [
	    "mmUICube"
	],
    "passName": "mmVKRenderPassMaster",
    "samples": 0,
	"inputAssembly": {
		"flags": 0,
		"topology": "VK_PRIMITIVE_TOPOLOGY_TRIANGLE_LIST",
		"primitiveRestartEnable": 0
	},
	"tessellation": {
		"flags": 0,
		"patchControlPoints": 0
	},
	"rasterization": {
		"flags": 0,
		"depthClampEnable": 0,
		"rasterizerDiscardEnable": 0,
		"polygonMode": "VK_POLYGON_MODE_FILL",
		"cullMode": "VK_CULL_MODE_BACK_BIT",
		"frontFace": "VK_FRONT_FACE_COUNTER_CLOCKWISE",
		"depthBiasEnable": 0,
		"depthBiasConstantFactor": 0.0,
		"depthBiasClamp": 0.0,
		"depthBiasSlopeFactor": 0.0,
		"lineWidth": 1.0
	},
	"colorBlend": {
		"flags": 0,
		"logicOpEnable": 0,
		"logicOp": "VK_LOGIC_OP_CLEAR",
		"attachments": [
			{
				"blendEnable": 1,
				"srcColorBlendFactor": "VK_BLEND_FACTOR_SRC_ALPHA",
				"dstColorBlendFactor": "VK_BLEND_FACTOR_ONE_MINUS_SRC_ALPHA",
				"colorBlendOp": "VK_BLEND_OP_ADD",
				"srcAlphaBlendFactor": "VK_BLEND_FACTOR_ONE_MINUS_SRC_ALPHA",
				"dstAlphaBlendFactor": "VK_BLEND_FACTOR_SRC_ALPHA",
				"alphaBlendOp": "VK_BLEND_OP_ADD",
				"colorWriteMask": 15
			}
		],
		"blendConstants": [0, 0, 0, 0]
	},
	"depthStencil": {
		"flags": 0,
		"depthTestEnable": 1,
		"depthWriteEnable": 1,
		"depthCompareOp": "VK_COMPARE_OP_LESS_OR_EQUAL",
		"depthBoundsTestEnable": 0,
		"stencilTestEnable": 0,
		"front": {
			"failOp": "VK_STENCIL_OP_KEEP",
			"passOp": "VK_STENCIL_OP_KEEP",
			"depthFailOp": "VK_STENCIL_OP_KEEP",
			"compareOp": "VK_COMPARE_OP_ALWAYS",
			"compareMask": 0,
			"writeMask": 0,
			"reference": 0
		},
		"back": {
			"failOp": "VK_STENCIL_OP_KEEP",
			"passOp": "VK_STENCIL_OP_KEEP",
			"depthFailOp": "VK_STENCIL_OP_KEEP",
			"compareOp": "VK_COMPARE_OP_ALWAYS",
			"compareMask": 0,
			"writeMask": 0,
			"reference": 0
		},
		"minDepthBounds": 0.0,
		"maxDepthBounds": 0.0
	},
	"multisample": {
		"flags": 0,
		"rasterizationSamples": 0,
		"sampleShadingEnable": 0,
		"minSampleShading": 0.0,
		"sampleMask": [],
		"alphaToCoverageEnable": 0,
		"alphaToOneEnable": 0
	}
}

