{
    "Type": "mmUIView",
    "Property":
    {
        "View.Anchor": "(0.0f, 0.0f, 0.5f)",
        "View.Size": "((0.0f, 1.0f), (0.0f, 1.0f), (0.0f, 1.0f))",
    },
    "Children":
    [
        {
            "Type": "mmUIViewImage",
            "Property":
            {
                "View.Name": "MyImage",
                "View.Anchor": "(0.5f, 0.0f, 0.0f)",
                "View.Size": "((183.0f, 0.0f), (200.0f, 0.0f), (0.0f, 0.0f))",
                "View.Position": "((0.0f, 0.0f), (90.0f, 0.0f), (0.0f, 0.0f))",
                "View.Alignment": "(1, 0, 0)",
                "Drawable.PipelineName": "mmUIImage",
                "Drawable.PoolName": "mmUIImage",
                "Drawable.Alignment": "(1, 1, 1)",
                "Drawable.AspectMode": "3",
                "Image.SheetName": "imagesets/Image_2.sheet",
                "Image.FrameName": "gz_zhuangshi.png",
            },
        },
        {
            "Type": "mmUIViewText",
            "Property":
            {
                "View.Name": "MyText",
                "View.Anchor": "(0.5f, 0.0f, 0.0f)",
                "View.Size": "((183.0f, 0.0f), (35.0f, 0.0f), (0.0f, 0.0f))",
                "View.Position": "((0.0f, 0.0f), (50.0f, 0.0f), (0.0f, 0.0f))",
                "View.Alignment": "(1, 0, 0)",
                "Drawable.PipelineName": "mmUIImage",
                "Drawable.PoolName": "mmUIImage",
                "Drawable.Alignment": "(1, 1, 1)",
                "Drawable.Opacity": "(1, 1, 1, 1)",
                "Drawable.AspectMode": "3",
                "Text.FontFamilyName": "Helvetica",
                "Text.FontSize": "24",
                "Text.String": "abc",
            },
        },
        {
            "Type": "mmUIViewEditBox",
            "Property":
            {
                "View.Name": "MyEditBox",
                "View.Anchor": "(0.5f, 0.0f, 0.0f)",
                "View.Size": "((183.0f, 0.0f), (200.0f, 0.0f), (0.0f, 0.0f))",
                "View.Position": "((0.0f, 0.0f), (90.0f, 0.0f), (0.0f, 0.0f))",
                "View.Alignment": "(1, 0, 0)",
                "Drawable.PipelineName": "mmUIImage",
                "Drawable.PoolName": "mmUIImage",
                "Drawable.Alignment": "(1, 1, 1)",
                "Drawable.AspectMode": "3",
                "Text.FontFamilyName": "Helvetica",
                "Text.FontSize": "30",
                "Text.FontStyle": "0",
                "Text.FontWeight": "700",
                "Text.ForegroundColor": "(1, 0, 0, 1)",
                "Text.StrokeWidth": "-1",
                "Text.StrokeColor": "(1, 1, 0, 1)",
                "Text.UnderlineWidth": "1",
                "Text.UnderlineColor": "(0, 1, 0, 1)",
                "Text.StrikeThruWidth": "1",
                "Text.StrikeThruColor": "(0, 1, 1, 1)",
                "Text.TextAlignment": "4",
                "Text.ParagraphAlignment": "0",
                "Text.LineBreakMode": "0",
                "Text.WritingDirection": "-1",
                "Text.ShadowOffset": "(3, 3)",
                "Text.ShadowBlur": "3",
                "Text.ShadowColor": "(0, 0, 0, 1)",
                "Text.String": "abcdefghijklmnopqrstuvwxyzabcdefghijklmnopqrstuvwxyz",
            },
        },
        {
            "Type": "mmUIViewButton",
            "Property":
            {
                "View.Name": "MyButton",
                "View.Scale": "(1.0f, 1.0f, 1.0f)",
                "View.Anchor": "(0.5f, 0.0f, 0.0f)",
                "View.Size": "((183.0f, 0.0f), (35.0f, 0.0f), (0.0f, 0.0f))",
                "View.Position": "((0.0f, 0.0f), (50.0f, 0.0f), (0.0f, 0.0f))",
                "View.Alignment": "(1, 0, 0)",
                "Drawable.PipelineName": "mmUIImage",
                "Drawable.PoolName": "mmUIImage",
                "Drawable.Alignment": "(1, 1, 1)",
                "Drawable.AspectMode": "3",
                "Drawable.Flipped": "(0, 0)",
                "Drawable.ImageMode": "1",
                "Drawable.BrushMode": "0",
                "Drawable.Direction": "0",
                "Drawable.Reverse": "0",
                "Drawable.Amount": "0.0",
                "Image.Filter": "(0, 0)",
                "Image.MipmapMode": "0",
                "Image.AddressMode": "(2, 2, 2)",
                "Button.SheetName": "imagesets/Image_2.sheet",
                "Button.FrameNormal": "gz_zhuangshi.png",
                "Button.FrameDisabled": "img-1.png",
                "Button.FrameHovering": "img-2.png",
                "Button.FramePushed": "img-3.png",
                "Button.FrameDraging": "img-4.png",
                "Button.OpacityNormal": "(1, 1, 1, 1)",
                "Button.OpacityDisabled": "(1, 1, 1, 1)",
                "Button.OpacityHovering": "(1, 1, 1, 1)",
                "Button.OpacityPushed": "(1, 1, 1, 1)",
                "Button.OpacityDraging": "(1, 1, 1, 1)",
                "Button.Disabled": "0",
                "Button.Hovering": "0",
                "Button.Pushed": "0",
            },
        },
    ],
}

